{

    "code": "00",
    "pageData": [
        {
            "createtime": "2017-10-28 08:00:00",
            "gunid": "py-10012-01",
            "phone": "18617120748",
            "pileid": "py-10012",
            "reason": "123456",
            "reserveid": 1,
            "reservestate": "正常",
            "siteid": 1,
            "user": "rjm",
            "usetime": "2017-10-28 12:30:00"
        }
    ],
    "currentPage": 1,
    "totalPages": 5,
    "totalElements": 50
}
