{
    "code": "00",
    "pageData": [
        {
            "pileid": "1",
            "pilename": "1231321",
            "type": "12313",
            "factoryid": "123",
            "siteid": "12313213",
            "state": "!23132",
            "workstation": "qweq",
            "position": "121312",
            "remarks": "asda"
        }
    ],
    "currentPage": 1,
    "totalPages": 5,
    "totalElements": 50

}
