{
    "code": "00",
    "pageData": [
        {
            "programid": 1,
             "version": "23",
             "programname": "java",
                "uploaded": true
        },
        {
            "programid": 2,
            "version": "23",
            "programname": "java",
            "uploaded": false
        }
    ],
    "currentPage": 1,
    "totalPages": 5,
    "totalElements": 50
}
