{
    "code": "00",
    "pageData": [
        {
            "account": "1",
            "name": "超级管理员",
            "rolename": "超级管理员",
            "phone": "系统管理员"
        },
        {
            "account": "2",
            "name": "guest",
            "email": "平台一般用户",
            "weixin": "qqq"
        }
    ],
    "currentPage": 1,
    "totalPages": 5,
    "totalElements": 50
}
