{
    "code": "00",
    "pageData": [
        {
            "orderid": 231
        }
    ],
    "currentPage": 1,
    "totalPages": 5,
    "totalElements": 50
}
