{
    "code": "00",
    "pageData": [
        {

            "cardid": "1",
            "owener": "2",
            "createtime": "3",
            "balance": "4",
            "phone":  "5",
            "icstate": "normal",
            "endtime": "7",
            "ictype": "8"
        },
        {

                    "cardid": "1",
                    "owener": "2",
                    "createtime": "3",
                    "balance": "4",
                    "phone":  "5",
                    "icstate": "locked",
                    "endtime": "7",
                    "ictype": "8"
                }
    ],
        "currentPage": 1,
        "totalPages": 5,
        "totalElements": 50
}
