{
    "code": "00",
    "pageData": [

        {
            "recordid": "1",
            "operatepile": "2",
            "type": "3",
            "useraccount": "4",
            "operatetime": "5"
        }
    ],
    "currentPage": 1,
    "totalPages": 5,
    "totalElements": 50
}
