{

    "code": "00",
    "pageData": [
        {
            "recordid": "1",
            "operatersite": "2332",
            "type": "324234",
            "operatetime": "24324",
            "operater": "23313"
        },
        {
            "recordid": "123123",
            "operatersite": "13241243",
            "type": "143213",
            "operatetime": "121",
            "operater": "123142"
        }
    ],
    "currentPage": 2,
    "totalPages": 3,
    "totalElements": 3,
    "message": "successful"
}
