
{
    "code": "00",
    "pageData": [
        {
            "owener": "2",
            "phone":  "5",
            "position": "四川成都"，
            "hopedate": "2017-8-6",
            "status"： "审核通过"
        }
    ],
        "currentPage": 1,
        "totalPages": 5,
        "totalElements": 50
}

