{
    "code": "00",
    "pageData": [
        {
            "roleid": 231,
            "rolename": 1,
            "authorities": "23"
        }
    ],
    "currentPage": 1,
    "totalPages": 5,
    "totalElements": 50
}
