{
    "code": "00",
    "pageData": [
        {
            "id": "1",
            "name": "超级管理员",
            "auth": "超级管理员",
            "desc": "系统管理员"
        },
        {
            "id": "2",
            "name": "guest",
            "auth": "平台一般用户",
            "desc": ""
        }
    ],
    "currentPage": 1,
    "totalPages": 5,
    "totalElements": 50
}
